Started at Tue Dec 07 07:16:10 UTC 2021
Processing ansible-test
Offering ansible-test to Project Build Discarder
Processing ansible-user-db
Offering ansible-user-db to Project Build Discarder
Processing backup-to-aws
Offering backup-to-aws to Project Build Discarder
Processing maven-demo-project
Offering maven-demo-project to Project Build Discarder
Processing my-first-project
Offering my-first-project to Project Build Discarder
Processing remote-task
Offering remote-task to Project Build Discarder
Finished at Tue Dec 07 07:16:11 UTC 2021. 51ms
Started at Tue Dec 07 08:16:10 UTC 2021
Processing ansible-test
Offering ansible-test to Project Build Discarder
Processing ansible-user-db
Offering ansible-user-db to Project Build Discarder
Processing backup-to-aws
Offering backup-to-aws to Project Build Discarder
Processing maven-demo-project
Offering maven-demo-project to Project Build Discarder
Processing my-first-project
Offering my-first-project to Project Build Discarder
Processing remote-task
Offering remote-task to Project Build Discarder
Finished at Tue Dec 07 08:16:10 UTC 2021. 0ms
Started at Tue Dec 07 09:16:10 UTC 2021
Processing ansible-test
Offering ansible-test to Project Build Discarder
Processing ansible-user-db
Offering ansible-user-db to Project Build Discarder
Processing backup-to-aws
Offering backup-to-aws to Project Build Discarder
Processing maven-demo-project
Offering maven-demo-project to Project Build Discarder
Processing my-first-project
Offering my-first-project to Project Build Discarder
Processing remote-task
Offering remote-task to Project Build Discarder
Finished at Tue Dec 07 09:16:10 UTC 2021. 1ms
Started at Tue Dec 07 10:16:10 UTC 2021
Processing ansible-test
Offering ansible-test to Project Build Discarder
Processing ansible-user-db
Offering ansible-user-db to Project Build Discarder
Processing backup-to-aws
Offering backup-to-aws to Project Build Discarder
Processing maven-demo-project
Offering maven-demo-project to Project Build Discarder
Processing my-first-project
Offering my-first-project to Project Build Discarder
Processing remote-task
Offering remote-task to Project Build Discarder
Finished at Tue Dec 07 10:16:10 UTC 2021. 1ms
Started at Tue Dec 07 11:16:10 UTC 2021
Processing ansible-test
Offering ansible-test to Project Build Discarder
Processing ansible-user-db
Offering ansible-user-db to Project Build Discarder
Processing backup-to-aws
Offering backup-to-aws to Project Build Discarder
Processing maven-demo-project
Offering maven-demo-project to Project Build Discarder
Processing my-first-project
Offering my-first-project to Project Build Discarder
Processing remote-task
Offering remote-task to Project Build Discarder
Finished at Tue Dec 07 11:16:10 UTC 2021. 1ms
Started at Tue Dec 07 12:16:10 UTC 2021
Processing ansible-test
Offering ansible-test to Project Build Discarder
Processing ansible-user-db
Offering ansible-user-db to Project Build Discarder
Processing backup-to-aws
Offering backup-to-aws to Project Build Discarder
Processing maven-demo-project
Offering maven-demo-project to Project Build Discarder
Processing my-first-project
Offering my-first-project to Project Build Discarder
Processing remote-task
Offering remote-task to Project Build Discarder
Finished at Tue Dec 07 12:16:10 UTC 2021. 1ms
Started at Tue Dec 07 13:16:10 UTC 2021
Processing ansible-test
Offering ansible-test to Project Build Discarder
Processing ansible-user-db
Offering ansible-user-db to Project Build Discarder
Processing backup-to-aws
Offering backup-to-aws to Project Build Discarder
Processing maven-demo-project
Offering maven-demo-project to Project Build Discarder
Processing my-first-project
Offering my-first-project to Project Build Discarder
Processing remote-task
Offering remote-task to Project Build Discarder
Finished at Tue Dec 07 13:16:10 UTC 2021. 1ms
Started at Tue Dec 07 14:16:10 UTC 2021
Processing ansible-test
Offering ansible-test to Project Build Discarder
Processing ansible-user-db
Offering ansible-user-db to Project Build Discarder
Processing backup-to-aws
Offering backup-to-aws to Project Build Discarder
Processing maven-demo-project
Offering maven-demo-project to Project Build Discarder
Processing my-first-project
Offering my-first-project to Project Build Discarder
Processing remote-task
Offering remote-task to Project Build Discarder
Finished at Tue Dec 07 14:16:10 UTC 2021. 0ms
Started at Tue Dec 07 15:16:10 UTC 2021
Processing ansible-test
Offering ansible-test to Project Build Discarder
Processing ansible-user-db
Offering ansible-user-db to Project Build Discarder
Processing backup-to-aws
Offering backup-to-aws to Project Build Discarder
Processing maven-demo-project
Offering maven-demo-project to Project Build Discarder
Processing my-first-project
Offering my-first-project to Project Build Discarder
Processing remote-task
Offering remote-task to Project Build Discarder
Finished at Tue Dec 07 15:16:10 UTC 2021. 1ms
Started at Tue Dec 07 16:16:10 UTC 2021
Processing ansible-test
Offering ansible-test to Project Build Discarder
Processing ansible-user-db
Offering ansible-user-db to Project Build Discarder
Processing backup-to-aws
Offering backup-to-aws to Project Build Discarder
Processing maven-demo-project
Offering maven-demo-project to Project Build Discarder
Processing my-first-project
Offering my-first-project to Project Build Discarder
Processing remote-task
Offering remote-task to Project Build Discarder
Finished at Tue Dec 07 16:16:10 UTC 2021. 0ms
Started at Tue Dec 07 17:16:10 UTC 2021
Processing ansible-test
Offering ansible-test to Project Build Discarder
Processing ansible-user-db
Offering ansible-user-db to Project Build Discarder
Processing backup-to-aws
Offering backup-to-aws to Project Build Discarder
Processing maven-demo-project
Offering maven-demo-project to Project Build Discarder
Processing my-first-project
Offering my-first-project to Project Build Discarder
Processing remote-task
Offering remote-task to Project Build Discarder
Finished at Tue Dec 07 17:16:10 UTC 2021. 1ms
