Started at Mon Dec 06 08:14:49 UTC 2021
Processing ansible-test
Offering ansible-test to Project Build Discarder
Processing ansible-user-db
Offering ansible-user-db to Project Build Discarder
Processing backup-to-aws
Offering backup-to-aws to Project Build Discarder
Processing my-first-project
Offering my-first-project to Project Build Discarder
Processing remote-task
Offering remote-task to Project Build Discarder
Finished at Mon Dec 06 08:14:49 UTC 2021. 2ms
Started at Mon Dec 06 09:14:49 UTC 2021
Processing ansible-test
Offering ansible-test to Project Build Discarder
Processing ansible-user-db
Offering ansible-user-db to Project Build Discarder
Processing backup-to-aws
Offering backup-to-aws to Project Build Discarder
Processing my-first-project
Offering my-first-project to Project Build Discarder
Processing remote-task
Offering remote-task to Project Build Discarder
Finished at Mon Dec 06 09:14:49 UTC 2021. 1ms
Started at Mon Dec 06 10:14:49 UTC 2021
Processing ansible-test
Offering ansible-test to Project Build Discarder
Processing ansible-user-db
Offering ansible-user-db to Project Build Discarder
Processing backup-to-aws
Offering backup-to-aws to Project Build Discarder
Processing my-first-project
Offering my-first-project to Project Build Discarder
Processing remote-task
Offering remote-task to Project Build Discarder
Finished at Mon Dec 06 10:14:49 UTC 2021. 1ms
Started at Mon Dec 06 11:14:49 UTC 2021
Processing ansible-test
Offering ansible-test to Project Build Discarder
Processing ansible-user-db
Offering ansible-user-db to Project Build Discarder
Processing backup-to-aws
Offering backup-to-aws to Project Build Discarder
Processing my-first-project
Offering my-first-project to Project Build Discarder
Processing remote-task
Offering remote-task to Project Build Discarder
Finished at Mon Dec 06 11:14:49 UTC 2021. 0ms
