Started at Sat Dec 04 15:16:18 UTC 2021
Processing ansible-test
Offering ansible-test to Project Build Discarder
Processing backup-to-aws
Offering backup-to-aws to Project Build Discarder
Processing my-first-project
Offering my-first-project to Project Build Discarder
Processing remote-task
Offering remote-task to Project Build Discarder
Finished at Sat Dec 04 15:16:18 UTC 2021. 1ms
Started at Sat Dec 04 16:16:18 UTC 2021
Processing ansible-test
Offering ansible-test to Project Build Discarder
Processing backup-to-aws
Offering backup-to-aws to Project Build Discarder
Processing my-first-project
Offering my-first-project to Project Build Discarder
Processing remote-task
Offering remote-task to Project Build Discarder
Finished at Sat Dec 04 16:16:18 UTC 2021. 1ms
Started at Sat Dec 04 17:16:18 UTC 2021
Processing ansible-test
Offering ansible-test to Project Build Discarder
Processing backup-to-aws
Offering backup-to-aws to Project Build Discarder
Processing my-first-project
Offering my-first-project to Project Build Discarder
Processing remote-task
Offering remote-task to Project Build Discarder
Finished at Sat Dec 04 17:16:18 UTC 2021. 0ms
Started at Sat Dec 04 18:16:18 UTC 2021
Processing ansible-test
Offering ansible-test to Project Build Discarder
Processing backup-to-aws
Offering backup-to-aws to Project Build Discarder
Processing my-first-project
Offering my-first-project to Project Build Discarder
Processing remote-task
Offering remote-task to Project Build Discarder
Finished at Sat Dec 04 18:16:18 UTC 2021. 0ms
Started at Sat Dec 04 19:16:18 UTC 2021
Processing ansible-test
Offering ansible-test to Project Build Discarder
Processing backup-to-aws
Offering backup-to-aws to Project Build Discarder
Processing my-first-project
Offering my-first-project to Project Build Discarder
Processing remote-task
Offering remote-task to Project Build Discarder
Finished at Sat Dec 04 19:16:18 UTC 2021. 1ms
Started at Sat Dec 04 20:16:18 UTC 2021
Processing ansible-test
Offering ansible-test to Project Build Discarder
Processing backup-to-aws
Offering backup-to-aws to Project Build Discarder
Processing my-first-project
Offering my-first-project to Project Build Discarder
Processing remote-task
Offering remote-task to Project Build Discarder
Finished at Sat Dec 04 20:16:18 UTC 2021. 0ms
