Started at Mon Dec 06 06:35:12 UTC 2021
Processing ansible-test
Offering ansible-test to Project Build Discarder
Processing backup-to-aws
Offering backup-to-aws to Project Build Discarder
Processing my-first-project
Offering my-first-project to Project Build Discarder
Processing remote-task
Offering remote-task to Project Build Discarder
Finished at Mon Dec 06 06:35:12 UTC 2021. 50ms
Started at Mon Dec 06 07:35:12 UTC 2021
Processing ansible-test
Offering ansible-test to Project Build Discarder
Processing backup-to-aws
Offering backup-to-aws to Project Build Discarder
Processing my-first-project
Offering my-first-project to Project Build Discarder
Processing remote-task
Offering remote-task to Project Build Discarder
Finished at Mon Dec 06 07:35:12 UTC 2021. 1ms
