Started at Mon Dec 06 07:57:48 UTC 2021
Checking ansible-test
Checking ansible-user-db
Checking backup-to-aws
Checking my-first-project
Checking remote-task
Finished at Mon Dec 06 07:57:48 UTC 2021. 28ms
